{
	"id": "507f1f77bcf86cd799439011",
	"firstName": "John",
	"lastName": "Smith",
	"email": "johnsmith@gmail.com",
	"password": "johnhandsome",
	"isAdmin": false,
	"mobileNumber": "09190093052",
	"dateTimeRegistered": "2020-03-15T15:00:00.00Z",
	"enrollment":[]
}
